Run Name                           Average COM Velocity, (x,y,z)

../SimulationAnnex/Incoming/PrecBBH/PrecBBH000001/         8.480784656236096e-06     1.6297268127492218e-05     4.086725152266384e-06
../SimulationAnnex/Incoming/PrecBBH/PrecBBH000002/         6.492417144108443e-06     6.2221717474755036e-06     1.3178144169765596e-06
../SimulationAnnex/Incoming/PrecBBH/PrecBBH000003/         5.4294135701399035e-06     1.1874244333305246e-05     3.551303591595146e-06
../SimulationAnnex/Incoming/PrecBBH/PrecBBH000004/         9.191614236320949e-06     1.794144918890024e-05     6.916781441737895e-06
../SimulationAnnex/Incoming/PrecBBH/PrecBBH000005/         7.987945332262634e-06     9.338127630908649e-06     1.8579040495095367e-06
../SimulationAnnex/Incoming/PrecBBH/PrecBBH000006/         8.435018663924928e-06     9.518137166343458e-06     2.3615251682213534e-06
../SimulationAnnex/Incoming/PrecBBH/PrecBBH000007/         7.075315186813284e-06     1.0135175925623506e-05     9.569251626304734e-07
../SimulationAnnex/Incoming/PrecBBH/PrecBBH000008/         8.48269337916527e-06     2.4449855120739906e-05     6.063340676633751e-06
../SimulationAnnex/Incoming/PrecBBH/PrecBBH000009/         1.7545477775387066e-05     4.5295188469691106e-05     9.488146173417322e-06
../SimulationAnnex/Incoming/PrecBBH/PrecBBH000010/         1.7048603429847892e-05     4.834483080218029e-05     7.848572032875996e-06
../SimulationAnnex/Incoming/PrecBBH/PrecBBH000011/         6.597092076216812e-05     7.544855128146916e-05     1.064354234765647e-05
../SimulationAnnex/Incoming/PrecBBH/PrecBBH000012/         4.0583285457006944e-05     3.587879130298651e-05     6.224249383722269e-06
../SimulationAnnex/Incoming/PrecBBH/PrecBBH000013/         5.9409267271385775e-05     5.397694648674104e-05     9.429566804324811e-06
../SimulationAnnex/Incoming/PrecBBH/PrecBBH000014/         6.43916304354137e-05     3.127897555030924e-05     1.1098465304338862e-05
../SimulationAnnex/Incoming/PrecBBH/PrecBBH000015/         3.4512107628599336e-05     6.721262830406484e-05     1.0532978577838172e-05
../SimulationAnnex/Incoming/PrecBBH/PrecBBH000016/         4.5738314243073316e-05     4.5750784357593667e-05     7.27528632135145e-06
../SimulationAnnex/Incoming/PrecBBH/PrecBBH000017/         5.969954333106191e-05     8.245483912347385e-05     4.019858488846935e-06
../SimulationAnnex/Incoming/PrecBBH/PrecBBH000018/         6.377003875829422e-05     0.00010234357847271724     3.2966588461062088e-06
../SimulationAnnex/Incoming/PrecBBH/PrecBBH000019/         5.847753189600169e-05     9.245139619464004e-05     3.938284014159689e-06
../SimulationAnnex/Incoming/PrecBBH/PrecBBH000020/         7.431563130702301e-05     7.473426647683292e-05     4.291097515153246e-06
../SimulationAnnex/Incoming/PrecBBH/PrecBBH000021/         6.828833861447546e-05     0.0001052674183959179     9.80485306375815e-06
../SimulationAnnex/Incoming/PrecBBH/PrecBBH000022/         2.733182235225484e-05     6.312166531234923e-05     9.7294539636435e-06
../SimulationAnnex/Incoming/PrecBBH/PrecBBH000023/         4.31599404047453e-05     8.691472359131537e-05     6.393229573156921e-06
../SimulationAnnex/Incoming/PrecBBH/PrecBBH000024/         5.281289736445377e-05     7.038137461145846e-05     7.685194840924802e-06
../SimulationAnnex/Incoming/PrecBBH/PrecBBH000025/         6.494874195916724e-06     1.2582909398305806e-05     2.3197158567478063e-06
../SimulationAnnex/Incoming/PrecBBH/PrecBBH000026/         4.96680147582942e-06     7.526013872951145e-06     1.954286104359921e-06
../SimulationAnnex/Incoming/PrecBBH/PrecBBH000027/         1.9906049562535678e-05     4.926792044274386e-05     5.467982989746891e-06
../SimulationAnnex/Incoming/PrecBBH/PrecBBH000028/         5.7611005722606994e-05     4.2151288538821786e-05     8.218098400310266e-06
../SimulationAnnex/Incoming/PrecBBH/PrecBBH000029/         3.982835681359507e-05     3.4964730061004976e-05     2.5329091511919836e-06
../SimulationAnnex/Incoming/PrecBBH/PrecBBH000030/         5.536033039708971e-05     8.287060318559466e-05     5.221843530748688e-06
../SimulationAnnex/Incoming/PrecBBH/PrecBBH000031/         1.910003627494301e-06     6.859461769402388e-06     1.807309529064778e-06
../SimulationAnnex/Incoming/PrecBBH/PrecBBH000032/         3.218087465702109e-06     4.57001652059327e-06     1.0401397935020206e-06
../SimulationAnnex/Incoming/PrecBBH/PrecBBH000033/         1.1563877620666384e-05     2.285030374644804e-05     6.166068308030537e-06
../SimulationAnnex/Incoming/PrecBBH/PrecBBH000034/         2.8275839765083287e-05     7.541895313339037e-05     1.2496542703165985e-05
../SimulationAnnex/Incoming/PrecBBH/PrecBBH000035/         7.956411746908531e-05     7.339286383572548e-05     9.499403838041698e-06
../SimulationAnnex/Incoming/PrecBBH/PrecBBH000036/         4.1475049391114244e-05     9.354680046932593e-05     7.515290309069449e-06
../SimulationAnnex/Incoming/PrecBBH/PrecBBH000037/         4.4644381343265195e-05     8.033405962885316e-05     8.951856946930152e-06
../SimulationAnnex/Incoming/PrecBBH/PrecBBH000038/         7.140756359047908e-05     9.272936687390474e-05     3.9979030852095885e-06
../SimulationAnnex/Incoming/PrecBBH/PrecBBH000039/         9.70665469117141e-07     1.5213590504812158e-06     7.858193327755154e-07
../SimulationAnnex/Incoming/PrecBBH/PrecBBH000040/         9.69724415353056e-07     7.287166316044176e-07     8.933130495122927e-07
../SimulationAnnex/Incoming/PrecBBH/PrecBBH000041/         1.5335475340876525e-05     3.4916315552508855e-05     2.655294859242093e-06
../SimulationAnnex/Incoming/PrecBBH/PrecBBH000042/         1.7810639473299146e-05     7.658196570541402e-05     7.25734157842493e-06
../SimulationAnnex/Incoming/PrecBBH/PrecBBH000043/         3.311637559312201e-05     2.739233872865361e-05     3.3862466654589123e-06
../SimulationAnnex/Incoming/PrecBBH/PrecBBH000044/         3.4730333227064134e-05     2.1795672241202077e-05     2.7775756482373785e-06
../SimulationAnnex/Incoming/PrecBBH/PrecBBH000045/         7.571468070153355e-05     0.00010439701759143671     4.338702866271693e-06
../SimulationAnnex/Incoming/PrecBBH/PrecBBH000045_GaugeExp4/         7.888164511100757e-05     9.540468510183954e-05     4.703353078506673e-06
../SimulationAnnex/Incoming/PrecBBH/PrecBBH000045_GaugeExp6/         8.036774299848014e-05     6.906663027619876e-05     5.3456476761175934e-06
../SimulationAnnex/Incoming/PrecBBH/PrecBBH000045_Mar2017/         6.956838254784729e-05     0.00011253311080733152     3.275876715901698e-06
../SimulationAnnex/Incoming/PrecBBH/PrecBBH000046/         7.453839518576443e-05     0.00011376663704750911     2.6479482778196422e-06
../SimulationAnnex/Incoming/PrecBBH/PrecBBH000047/         6.941427473839429e-05     3.649037696542263e-05     3.193255799650549e-06
../SimulationAnnex/Incoming/PrecBBH/PrecBBH000048/         7.149238185921693e-05     4.3181689483484065e-05     2.206303038362457e-06
../SimulationAnnex/Incoming/PrecBBH/PrecBBH000050/         2.2634311125633248e-06     2.075226671361246e-06     3.4788434573283058e-06
../SimulationAnnex/Incoming/PrecBBH/PrecBBH000051/         2.120483092148762e-06     4.709103078739931e-06     1.3710841738486944e-06
../SimulationAnnex/Incoming/PrecBBH/PrecBBH000053/         2.5521799754533293e-06     3.743352006485159e-06     1.4376167277687512e-06
../SimulationAnnex/Incoming/PrecBBH/PrecBBH000054/         2.8582667593078093e-06     3.331947488004758e-06     4.531203874604219e-06
../SimulationAnnex/Incoming/PrecBBH/PrecBBH000055/         3.007047625040662e-07     1.1868801620013937e-07     3.162853354581755e-08
../SimulationAnnex/Incoming/PrecBBH/PrecBBH000056/         2.1624491478966127e-06     1.9972942459088245e-06     6.996367861656135e-06
../SimulationAnnex/Incoming/PrecBBH/PrecBBH000057/         3.574270858432086e-05     3.094596327734041e-05     5.101780861686268e-06
../SimulationAnnex/Incoming/PrecBBH/PrecBBH000058/         3.198108728953257e-05     2.8064764686513666e-05     6.391059733303904e-06
../SimulationAnnex/Incoming/PrecBBH/PrecBBH000059/         2.0628311724835408e-05     3.173063129655494e-05     7.2940515450593246e-06
../SimulationAnnex/Incoming/PrecBBH/PrecBBH000060/         3.903128926842201e-05     4.112267879546854e-05     9.916960557631424e-06
../SimulationAnnex/Incoming/PrecBBH/PrecBBH000061/         4.34615338712893e-05     5.957345464797672e-05     1.048725403537707e-05
../SimulationAnnex/Incoming/PrecBBH/PrecBBH000062/         2.1708602947645997e-05     8.678389440864444e-05     1.1066576449075286e-05
../SimulationAnnex/Incoming/PrecBBH/PrecBBH000063/         3.8229737145052134e-05     7.109101930155498e-05     1.0718180886933077e-05
../SimulationAnnex/Incoming/PrecBBH/PrecBBH000064/         6.105290806759551e-05     6.285063988098016e-05     8.762494102976187e-06
../SimulationAnnex/Incoming/PrecBBH/PrecBBH000065/         6.821917842198611e-05     6.678420343083244e-05     1.2495235356295857e-05
../SimulationAnnex/Incoming/PrecBBH/PrecBBH000066/         5.570653738161936e-05     3.588222341524144e-05     1.2178853626025552e-05
../SimulationAnnex/Incoming/PrecBBH/PrecBBH000067/         0.00010256883342366298     9.417706861681145e-05     7.163150409717636e-06
../SimulationAnnex/Incoming/PrecBBH/PrecBBH000068/         8.004250410059376e-05     9.646568287706343e-05     2.6264901915921255e-05
../SimulationAnnex/Incoming/PrecBBH/PrecBBH000069/         2.7659388024997455e-05     7.105816395639262e-05     8.584016873106903e-06
../SimulationAnnex/Incoming/PrecBBH/PrecBBH000070/         7.476695014146249e-05     8.512725871460922e-05     1.5332816485612707e-05
../SimulationAnnex/Incoming/PrecBBH/PrecBBH000071/         5.907076080947383e-05     0.0001090294937167191     8.173280763670225e-06
../SimulationAnnex/Incoming/PrecBBH/PrecBBH000072/         9.000583517605438e-05     9.554931045358443e-05     4.6406492952608504e-06
../SimulationAnnex/Incoming/PrecBBH/PrecBBH000073/         4.996356398850666e-05     7.105592709710581e-05     1.8194602132694446e-05
../SimulationAnnex/Incoming/PrecBBH/PrecBBH000074/         3.185596387620684e-05     3.1928325239818845e-05     1.4167244071258667e-05
../SimulationAnnex/Incoming/PrecBBH/PrecBBH000075/         4.285818970260733e-05     3.6930190956341865e-05     1.6285289420795605e-05
../SimulationAnnex/Incoming/PrecBBH/PrecBBH000076/         2.652902160513345e-05     5.369131535941016e-05     1.1738165119038114e-05
../SimulationAnnex/Incoming/PrecBBH/PrecBBH000077/         2.7802335457883354e-05     8.343315694345153e-05     1.7434598264329044e-05
../SimulationAnnex/Incoming/PrecBBH/PrecBBH000078/         5.932515822041525e-05     7.61871878782341e-05     7.2801452488940795e-06
../SimulationAnnex/Incoming/PrecBBH/PrecBBH000079/         7.791961388875886e-05     0.00012906852211535017     6.007134673417983e-06
../SimulationAnnex/Incoming/PrecBBH/PrecBBH000080/         3.0836247638385933e-05     6.347672962903148e-05     9.499212813366249e-06
../SimulationAnnex/Incoming/PrecBBH/PrecBBH000081/         3.5840664898193936e-07     1.7329786480291527e-07     8.319096642361615e-08
../SimulationAnnex/Incoming/PrecBBH/PrecBBH000082/         3.8188775980677764e-06     2.6973701602728255e-06     3.8252542631154364e-06
../SimulationAnnex/Incoming/PrecBBH/PrecBBH000083/         1.012716848998042e-06     3.194437113464801e-06     8.470802533975858e-07
../SimulationAnnex/Incoming/PrecBBH/PrecBBH000084/         1.3905510464826446e-06     2.9809395262000223e-06     4.402761321412838e-06
../SimulationAnnex/Incoming/PrecBBH/PrecBBH000085/         1.0664345708795756e-06     3.214083046180436e-06     8.096981486765691e-07
../SimulationAnnex/Incoming/PrecBBH/PrecBBH000086/         1.2852766394488426e-06     4.9643211201786185e-06     3.895725940986651e-06
../SimulationAnnex/Incoming/PrecBBH/PrecBBH000087/         4.3755467343959814e-07     2.6394786553144776e-07     8.399510452691867e-08
../SimulationAnnex/Incoming/PrecBBH/PrecBBH000088/         5.29924041443064e-07     2.5874992962423452e-06     4.591517728909903e-06
../SimulationAnnex/Incoming/PrecBBH/PrecBBH000089/         2.6928862560698032e-05     5.652771293143166e-05     3.0315307437135375e-06
../SimulationAnnex/Incoming/PrecBBH/PrecBBH000090/         2.8782751829546393e-05     6.241483036805192e-05     1.6559212691300882e-06
../SimulationAnnex/Incoming/PrecBBH/PrecBBH000091/         3.576240512211594e-05     2.1663103558808084e-05     2.2400541342633453e-06
../SimulationAnnex/Incoming/PrecBBH/PrecBBH000092/         3.482470504121317e-05     1.80802884386728e-05     2.8320612803573557e-06
../SimulationAnnex/Incoming/PrecBBH/PrecBBH000093/         2.1017359594198638e-05     9.771602863128205e-05     7.691713136682115e-06
../SimulationAnnex/Incoming/PrecBBH/PrecBBH000094/         1.630196352222954e-05     4.35068083517515e-05     5.254334799784287e-06
../SimulationAnnex/Incoming/PrecBBH/PrecBBH000095/         2.8318197107027124e-05     3.7282294888733386e-05     -2.0399915815807082e-06
../SimulationAnnex/Incoming/PrecBBH/PrecBBH000096/         3.4936361081444433e-05     6.311051310617282e-05     1.216164452743891e-05
../SimulationAnnex/Incoming/PrecBBH/PrecBBH000097/         3.4514433586799624e-05     5.946056032939976e-05     2.8715937415107865e-06
../SimulationAnnex/Incoming/PrecBBH/PrecBBH000098/         3.1583246957002624e-05     6.363457337085053e-05     4.287889635957451e-06
../SimulationAnnex/Incoming/PrecBBH/PrecBBH000099/         4.399949727578387e-05     5.494657214215595e-05     2.5658613232101123e-06
../SimulationAnnex/Incoming/PrecBBH/PrecBBH000100/         3.7760281763152867e-05     5.2756679906464816e-05     3.828387149323301e-06
../SimulationAnnex/Incoming/PrecBBH/PrecBBH000101/         6.174075101499199e-05     6.68369666125685e-05     9.052303706801628e-06
../SimulationAnnex/Incoming/PrecBBH/PrecBBH000102/         4.2242990069003005e-05     4.087038396452161e-05     5.360468822090531e-06
../SimulationAnnex/Incoming/PrecBBH/PrecBBH000103/         6.20487830520826e-05     5.633289745139112e-05     7.917919789099634e-06
../SimulationAnnex/Incoming/PrecBBH/PrecBBH000104/         2.4739130210171372e-05     3.4534671967047555e-05     5.019470389597355e-06
../SimulationAnnex/Incoming/PrecBBH/PrecBBH000105/         6.984114942433496e-05     0.00010146988864976376     4.301670254723024e-06
../SimulationAnnex/Incoming/PrecBBH/PrecBBH000106/         6.992049009781354e-05     0.00010253218664790467     5.120821320791931e-06
../SimulationAnnex/Incoming/PrecBBH/PrecBBH000107/         5.5643454584038044e-05     8.236865698557068e-05     5.387801559694789e-06
../SimulationAnnex/Incoming/PrecBBH/PrecBBH000108/         5.895762746630126e-05     4.778552641239782e-05     4.589498656297042e-06
../SimulationAnnex/Incoming/PrecBBH/PrecBBH000109/         5.583125962429104e-05     6.277455329657089e-05     1.041980501228744e-05
../SimulationAnnex/Incoming/PrecBBH/PrecBBH000110/         8.615924265973703e-05     5.721271385142437e-05     5.356410409623597e-06
../SimulationAnnex/Incoming/PrecBBH/PrecBBH000111/         7.588495513828444e-05     0.00010589276495225224     4.518332063503428e-06
../SimulationAnnex/Incoming/PrecBBH/PrecBBH000112/         7.843446650922245e-05     0.00011844673328684811     2.9316436833461643e-06
../SimulationAnnex/Incoming/PrecBBH/PrecBBH000113/         5.518932365143042e-05     6.626858986158072e-05     5.79492054976533e-06
../SimulationAnnex/Incoming/PrecBBH/PrecBBH000114/         4.812713737431226e-05     4.569921653292674e-05     4.39666653983441e-06
../SimulationAnnex/Incoming/PrecBBH/PrecBBH000115/         4.2422444489197525e-05     4.5794347566867006e-05     2.9971400495761886e-06
../SimulationAnnex/Incoming/PrecBBH/PrecBBH000116/         7.085101314810946e-05     6.044675379559504e-05     3.3129955345550535e-06
../SimulationAnnex/Incoming/PrecBBH/PrecBBH000117/         6.22106850835372e-05     6.252628121976203e-05     6.574026084033639e-06
../SimulationAnnex/Incoming/PrecBBH/PrecBBH000118/         5.509356803508729e-05     6.586728464536323e-05     4.912931149036823e-06
../SimulationAnnex/Incoming/PrecBBH/PrecBBH000119/         6.919345119219262e-05     5.356888128218346e-05     2.2661771997310153e-06
PrecBBH000120/         7.059855728534486e-05     7.365877788692681e-05     3.2869103769816423e-06
