\relax 
\@writefile{toc}{\contentsline {section}{\numberline {1}COM removal reasoning}{1}}
\@writefile{toc}{\contentsline {section}{\numberline {2}COM analysis}{2}}
\@writefile{toc}{\contentsline {subsubsection}{\numberline {2.0.1}PrecBBH000045}{2}}
\@writefile{toc}{\contentsline {subsection}{\numberline {2.1}Chu Aligned}{3}}
