Run name and Lev              COM Velocity              COM Position            COM Velocity deviation

../SimulationAnnex/Catalog/ChuAlignedRuns/BBH_CFMS_d18.2_q1_sA_0_0_-0.500_sB_0_0_0.500_rerun/Lev1         1.7784890545314664e-05         0.01345544102686817         5.1779647097553154e-05
../SimulationAnnex/Catalog/ChuAlignedRuns/BBH_CFMS_d18.2_q1_sA_0_0_-0.500_sB_0_0_0.500_rerun/Lev2         1.6674003763663836e-05         0.01364829352633671         5.065290385779834e-05
../SimulationAnnex/Catalog/ChuAlignedRuns/BBH_CFMS_d11.2_q10_sA_0_0_0_sB_0_0_0/Lev3         4.640440103567967e-06         0.01782280627379887         9.367908194177806e-06
../SimulationAnnex/Catalog/ChuAlignedRuns/BBH_CFMS_d11.3_q9.50_sA_0_0_0_sB_0_0_0/Lev3         4.629583774235467e-06         0.018612684405431235         9.016160512224592e-06
../SimulationAnnex/Catalog/ChuAlignedRuns/BBH_CFMS_d11.4_q9_sA_0_0_0_sB_0_0_0/Lev3         3.6579525762755016e-06         0.017900777655374886         8.748704694960083e-06
../SimulationAnnex/Catalog/ChuAlignedRuns/BBH_CFMS_d11.5_q8.50_sA_0_0_0_sB_0_0_0/Lev3         4.566146762221707e-06         0.019033684621562023         1.0281408703255972e-05
../SimulationAnnex/Catalog/ChuAlignedRuns/BBH_CFMS_d12.1_q7.50_sA_0_0_0_sB_0_0_0/Lev3         4.644660779486726e-06         0.020707030300190995         9.640635315485901e-06
../SimulationAnnex/Catalog/ChuAlignedRuns/BBH_CFMS_d12.2_q7_sA_0_0_0_sB_0_0_0/Lev3         3.8523628611585294e-06         0.020001019730732962         9.11241053602797e-06
../SimulationAnnex/Catalog/ChuAlignedRuns/BBH_CFMS_d12.4_q6.50_sA_0_0_0_sB_0_0_0/Lev3         3.759221114921936e-06         0.020547528401705997         8.95468381775108e-06
../SimulationAnnex/Catalog/ChuAlignedRuns/BBH_CFMS_d14.3_q3_sA_0_0_0.500_sB_0_0_0.500/Lev3         2.11040615567806e-06         0.01770278427918438         5.640256356360482e-06
../SimulationAnnex/Catalog/ChuAlignedRuns/BBH_CFMS_d14.5_q5.50_sA_0_0_0_sB_0_0_0/Lev3         5.186712711419263e-06         0.025629285343543848         1.0311685559403812e-05
../SimulationAnnex/Catalog/ChuAlignedRuns/BBH_CFMS_d14.6_q3_sA_0_0_0.300_sB_0_0_0.300/Lev3         2.372342292418038e-06         0.02044107780262693         5.314816053573388e-06
../SimulationAnnex/Catalog/ChuAlignedRuns/BBH_CFMS_d14.7_q3_sA_0_0_0.300_sB_0_0_0/Lev3         2.218847013106881e-06         0.01969932512852906         5.930984482356773e-06
../SimulationAnnex/Catalog/ChuAlignedRuns/BBH_CFMS_d14.8_q3_sA_0_0_0.300_sB_0_0_-0.300/Lev3         1.963332112477527e-06         0.01821297239413115         5.488574114506558e-06
../SimulationAnnex/Catalog/ChuAlignedRuns/BBH_CFMS_d15.1_q4.50_sA_0_0_0_sB_0_0_0/Lev3         4.840765012721142e-06         0.026118817787429614         1.0184810901326423e-05
../SimulationAnnex/Catalog/ChuAlignedRuns/BBH_CFMS_d15.3_q3_sA_0_0_0_sB_0_0_-0.300/Lev3         1.9282043263595187e-06         0.0218878608475542         4.860434171602606e-06
../SimulationAnnex/Catalog/ChuAlignedRuns/BBH_CFMS_d15.5_q2_sA_0_0_0.300_sB_0_0_0.300/Lev3         1.6017010443712018e-06         0.015931144155680813         3.957684870664827e-06
../SimulationAnnex/Catalog/ChuAlignedRuns/BBH_CFMS_d15.5_q3_sA_0_0_-0.300_sB_0_0_0.300/Lev3         6.364706436468357e-06         0.02978732485250659         1.2123656205153462e-05
../SimulationAnnex/Catalog/ChuAlignedRuns/BBH_CFMS_d15.6_q2_sA_0_0_0.300_sB_0_0_0/Lev3         1.8919267303928728e-06         0.014454963882256564         5.287242529856339e-06
../SimulationAnnex/Catalog/ChuAlignedRuns/BBH_CFMS_d15.6_q3_sA_0_0_-0.300_sB_0_0_0/Lev3         5.373721669408361e-06         0.028031876027999315         1.1907789801127302e-05
../SimulationAnnex/Catalog/ChuAlignedRuns/BBH_CFMS_d15.8_q2_sA_0_0_0.300_sB_0_0_-0.300/Lev3         2.7406022415026938e-06         0.013174665514650366         7.827793800987895e-06
../SimulationAnnex/Catalog/ChuAlignedRuns/BBH_CFMS_d15.8_q2_sA_0_0_0_sB_0_0_0.300/Lev3         3.0984854557081855e-06         0.019664199347250864         6.090030033441672e-06
../SimulationAnnex/Catalog/ChuAlignedRuns/BBH_CFMS_d15.8_q3_sA_0_0_-0.300_sB_0_0_-0.300/Lev3         4.090147990873098e-06         0.026904574492853713         9.123966522566914e-06
../SimulationAnnex/Catalog/ChuAlignedRuns/BBH_CFMS_d15.9_q3.50_sA_0_0_0_sB_0_0_0/Lev3         4.336804438790709e-06         0.02622465761129867         8.044682340899777e-06
../SimulationAnnex/Catalog/ChuAlignedRuns/BBH_CFMS_d15_q3_sA_0_0_0_sB_0_0_0.300/Lev3         4.009859797597973e-06         0.02429574696309324         7.769321675949738e-06
../SimulationAnnex/Catalog/ChuAlignedRuns/BBH_CFMS_d16.2_q2_sA_0_0_0_sB_0_0_-0.300/Lev3         1.0295854383691801e-06         0.01567564693680149         2.8231499537980587e-06
../SimulationAnnex/Catalog/ChuAlignedRuns/BBH_CFMS_d16.3_q2_sA_0_0_-0.300_sB_0_0_0.300/Lev3         5.994060918127952e-06         0.026379587626455734         1.0328891347471345e-05
../SimulationAnnex/Catalog/ChuAlignedRuns/BBH_CFMS_d16.4_q1_sA_0_0_0.300_sB_0_0_0/Lev3         2.030773023685116e-06         0.00530763460130142         5.689509490044406e-06
../SimulationAnnex/Catalog/ChuAlignedRuns/BBH_CFMS_d16.4_q2_sA_0_0_0.500_sB_0_0_0.500/Lev3         1.3136614993708177e-06         0.014939553064854042         4.065858109448521e-06
../SimulationAnnex/Catalog/ChuAlignedRuns/BBH_CFMS_d16.4_q3_sA_0_0_-0.500_sB_0_0_-0.500/Lev3         5.96662423277177e-06         0.02924973875039324         1.0788786616725012e-05
../SimulationAnnex/Catalog/ChuAlignedRuns/BBH_CFMS_d16.5_q2_sA_0_0_-0.300_sB_0_0_0/Lev3         4.76936949978792e-06         0.024142559319657794         9.76953234825991e-06
../SimulationAnnex/Catalog/ChuAlignedRuns/BBH_CFMS_d16.8_q2_sA_0_0_-0.300_sB_0_0_-0.300/Lev3         2.4248017216981947e-06         0.020395043651494377         5.51622343815105e-06
../SimulationAnnex/Catalog/ChuAlignedRuns/BBH_CFMS_d16.9_q2.50_sA_0_0_0_sB_0_0_0/Lev3         3.298538161083966e-06         0.023420496180015946         6.895137706242919e-06
../SimulationAnnex/Catalog/ChuAlignedRuns/BBH_CFMS_d17.1_q1_sA_0_0_-0.300_sB_0_0_0/Lev3         2.4598081639276135e-06         0.0056780459935314555         4.155482051349996e-06
../SimulationAnnex/Catalog/ChuAlignedRuns/BBH_CFMS_d18.2_q1_sA_0_0_-0.500_sB_0_0_0.500/Lev3         1.6080458042033222e-05         0.016179423724135843         1.4307464517876318e-05
../SimulationAnnex/Catalog/ChuAlignedRuns/BBH_CFMS_d18.2_q1_sA_0_0_-0.500_sB_0_0_0.500_rerun/Lev3         1.7534280866882657e-05         0.01363792234471355         5.152614025399605e-05
../SimulationAnnex/Catalog/ChuAlignedRuns/BBH_CFMS_d19.2_q2_sA_0_0_-0.500_sB_0_0_-0.500/Lev3         4.620978390412593e-06         0.024427614983237242         9.26320392456089e-06
../SimulationAnnex/Catalog/ChuAlignedRuns/BBH_SKS_d13.9_q3_sA_0_0_0.850_sB_0_0_0.850/Lev3         8.046938512117212e-06         0.003967155597549603         1.3980237965517813e-05
../SimulationAnnex/Catalog/ChuAlignedRuns/BBH_SKS_d14.2_q3_sA_0_0_0.600_sB_0_0_0.400/Lev3         6.974952706310631e-06         0.03850989526147435         9.86231823919109e-06
../SimulationAnnex/Catalog/ChuAlignedRuns/BBH_SKS_d14.2_q3_sA_0_0_0.600_sB_0_0_0.600/Lev3         1.4548807117168519e-05         0.0013884725637156325         1.2796020542729267e-05
../SimulationAnnex/Catalog/ChuAlignedRuns/BBH_SKS_d14.3_q3_sA_0_0_0.600_sB_0_0_0/Lev3         2.8628556603317972e-05         0.07284077501480274         1.3192773143132972e-05
../SimulationAnnex/Catalog/ChuAlignedRuns/BBH_SKS_d14.3_q3_sA_0_0_0.731_sB_0_0_-0.850/Lev3         9.504787297655547e-06         0.12158942857176262         1.3315910889690895e-05
../SimulationAnnex/Catalog/ChuAlignedRuns/BBH_SKS_d14.4_q3_sA_0_0_0.400_sB_0_0_0.600/Lev3         1.590325352446085e-05         0.03433277163908565         1.2185501312503382e-05
../SimulationAnnex/Catalog/ChuAlignedRuns/BBH_SKS_d14.4_q3_sA_0_0_0.600_sB_0_0_-0.400/Lev3         1.7945890439711635e-05         0.07356514915429578         5.530846574528119e-06
../SimulationAnnex/Catalog/ChuAlignedRuns/BBH_SKS_d14.5_q3_sA_0_0_0.269_sB_0_0_0.850/Lev3         1.252841143264056e-05         0.15006428036257713         9.287152402594848e-06
../SimulationAnnex/Catalog/ChuAlignedRuns/BBH_SKS_d14.5_q3_sA_0_0_0.600_sB_0_0_-0.600/Lev3         1.8447287524603676e-05         0.07018198094749294         1.174984370585489e-05
../SimulationAnnex/Catalog/ChuAlignedRuns/BBH_SKS_d14.7_q2_sA_0_0_0.850_sB_0_0_0.850/Lev3         1.0905095183425415e-05         0.004288560364536599         8.13424799962999e-06
../SimulationAnnex/Catalog/ChuAlignedRuns/BBH_SKS_d14.7_q3_sA_0_0_0.400_sB_0_0_-0.600/Lev3         1.2554384116375416e-05         0.047991541830724835         9.114028025640153e-06
../SimulationAnnex/Catalog/ChuAlignedRuns/BBH_SKS_d14.9_q3_sA_0_0_0_sB_0_0_0.600/Lev3         8.436908657405127e-06         0.06565966432236146         2.6689535236640673e-06
../SimulationAnnex/Catalog/ChuAlignedRuns/BBH_SKS_d15.1_q3_sA_0_0_-0.231_sB_0_0_0.850/Lev3         7.3290863990077725e-06         0.17091515438660249         1.0309735059719263e-05
../SimulationAnnex/Catalog/ChuAlignedRuns/BBH_SKS_d15.1_q3_sA_0_0_0.231_sB_0_0_-0.850/Lev3         5.874708580300431e-06         0.1261319348928018         9.675366317663324e-06
../SimulationAnnex/Catalog/ChuAlignedRuns/BBH_SKS_d15.2_q2_sA_0_0_0.600_sB_0_0_0/Lev3         3.449883064248632e-06         0.08782354433802911         7.723373664333037e-06
../SimulationAnnex/Catalog/ChuAlignedRuns/BBH_SKS_d15.2_q2_sA_0_0_0.871_sB_0_0_-0.850/Lev3         8.787604212151348e-06         0.20352735420383888         2.334113221289068e-05
../SimulationAnnex/Catalog/ChuAlignedRuns/BBH_SKS_d15.4_q1_sA_0_0_0.800_sB_0_0_0.800/Lev3         3.1997505103766605e-07         3.433684878890475e-05         6.390447817602211e-07
../SimulationAnnex/Catalog/ChuAlignedRuns/BBH_SKS_d15.4_q2_sA_0_0_0.129_sB_0_0_0.850/Lev3         2.4148290158668976e-05         0.20434301177003866         1.9008719534909873e-05
../SimulationAnnex/Catalog/ChuAlignedRuns/BBH_SKS_d15.4_q3_sA_0_0_0_sB_0_0_-0.600/Lev3         2.038871434097209e-05         0.04184808957859627         1.2746885315861543e-05
../SimulationAnnex/Catalog/ChuAlignedRuns/BBH_SKS_d15.5_q1_sA_0_0_0.900_sB_0_0_0.500/Lev3         4.279786383261855e-06         0.22662157115254253         8.838606733010325e-06
../SimulationAnnex/Catalog/ChuAlignedRuns/BBH_SKS_d15.5_q2_sA_0_0_0.600_sB_0_0_-0.600/Lev3         1.360003157149873e-05         0.08359734946711252         6.550011187429915e-06
../SimulationAnnex/Catalog/ChuAlignedRuns/BBH_SKS_d15.5_q3_sA_0_0_-0.400_sB_0_0_0.600/Lev3         1.5936928111398002e-05         0.06353626352523499         4.296656563329585e-06
../SimulationAnnex/Catalog/ChuAlignedRuns/BBH_SKS_d15.6_q1_sA_0_0_0.400_sB_0_0_0.800/Lev3         8.426275585366618e-07         0.1564044866142382         2.664040228386684e-06
../SimulationAnnex/Catalog/ChuAlignedRuns/BBH_SKS_d15.6_q1_sA_0_0_0.600_sB_0_0_0.600/Lev3         2.2697541424876865e-07         2.909018241164359e-05         4.4494977338003567e-07
../SimulationAnnex/Catalog/ChuAlignedRuns/BBH_SKS_d15.6_q2_sA_0_0_0_sB_0_0_0.600/Lev3         2.849944623895813e-05         0.0832749425841193         1.546852016429457e-05
../SimulationAnnex/Catalog/ChuAlignedRuns/BBH_SKS_d15.8_q1_sA_0_0_0.650_sB_0_0_0.250/Lev3         8.857641028595819e-07         0.099814617190542         1.6164516667410203e-06
../SimulationAnnex/Catalog/ChuAlignedRuns/BBH_SKS_d15.8_q1_sA_0_0_0.900_sB_0_0_0/Lev3         1.7754770608931333e-06         0.3011795321887934         6.556624683756681e-06
../SimulationAnnex/Catalog/ChuAlignedRuns/BBH_SKS_d15.8_q3_sA_0_0_-0.600_sB_0_0_0.600/Lev3         1.2519712689172465e-05         0.07414604716695203         2.347682260075334e-05
../SimulationAnnex/Catalog/ChuAlignedRuns/BBH_SKS_d15.8_q3_sA_0_0_-0.731_sB_0_0_0.850/Lev3         1.2656069564132543e-05         0.16316592844131025         2.3031704557830484e-05
../SimulationAnnex/Catalog/ChuAlignedRuns/BBH_SKS_d15.9_q2_sA_0_0_-0.371_sB_0_0_0.850/Lev3         1.2580086263190003e-05         0.21267283550121224         2.4184281540001677e-05
../SimulationAnnex/Catalog/ChuAlignedRuns/BBH_SKS_d15.9_q2_sA_0_0_0.371_sB_0_0_-0.850/Lev3         7.489050609704921e-06         0.16272343369138445         1.826811596187357e-05
../SimulationAnnex/Catalog/ChuAlignedRuns/BBH_SKS_d15.9_q3_sA_0_0_-0.600_sB_0_0_0.400/Lev3         7.733248672100884e-06         0.06679311457402497         1.331200148937691e-05
../SimulationAnnex/Catalog/ChuAlignedRuns/BBH_SKS_d15_q2_sA_0_0_0.600_sB_0_0_0.600/Lev3         8.05559657802643e-06         0.002367307998175652         1.113786293143709e-05
../SimulationAnnex/Catalog/ChuAlignedRuns/BBH_SKS_d16.1_q1_sA_0_0_-0.500_sB_0_0_0.900/Lev3         3.7231235724373353e-06         0.2904230253240918         7.876384708280036e-06
../SimulationAnnex/Catalog/ChuAlignedRuns/BBH_SKS_d16.1_q1_sA_0_0_0.600_sB_0_0_0/Lev3         9.236703196969183e-07         0.1030624171475543         3.338128798970104e-06
../SimulationAnnex/Catalog/ChuAlignedRuns/BBH_SKS_d16.1_q3_sA_0_0_-0.269_sB_0_0_-0.850/Lev3         3.660337928765641e-05         0.12461240175582866         1.8136381908498868e-05
../SimulationAnnex/Catalog/ChuAlignedRuns/BBH_SKS_d16.2_q1_sA_0_0_-0.400_sB_0_0_0.800/Lev3         1.6823730856388747e-06         0.20178097209324453         5.062674551854889e-06
../SimulationAnnex/Catalog/ChuAlignedRuns/BBH_SKS_d16.2_q3_sA_0_0_-0.400_sB_0_0_-0.600/Lev3         1.4581654954406597e-05         0.013467315957648595         1.9313982266607753e-05
../SimulationAnnex/Catalog/ChuAlignedRuns/BBH_SKS_d16.2_q3_sA_0_0_-0.600_sB_0_0_0/Lev3         1.2469020124994731e-05         0.0804987886017342         1.5812390903771843e-05
../SimulationAnnex/Catalog/ChuAlignedRuns/BBH_SKS_d16.5_q1_sA_0_0_-0.800_sB_0_0_0.800/Lev3         1.6378545782435415e-06         0.195868711482692         3.296632618126656e-06
../SimulationAnnex/Catalog/ChuAlignedRuns/BBH_SKS_d16.5_q1_sA_0_0_-0.900_sB_0_0_0.900/Lev3         3.140633364084586e-06         0.30432603037256334         5.5002218594971745e-06
../SimulationAnnex/Catalog/ChuAlignedRuns/BBH_SKS_d16.5_q2_sA_0_0_-0.600_sB_0_0_0.600/Lev3         1.6950749656489742e-05         0.09021635950126396         1.4050030839293192e-05
../SimulationAnnex/Catalog/ChuAlignedRuns/BBH_SKS_d16.5_q2_sA_0_0_0_sB_0_0_-0.600/Lev3         2.4679617869846648e-05         0.05655392547392645         1.1134409802977126e-05
../SimulationAnnex/Catalog/ChuAlignedRuns/BBH_SKS_d16.6_q1_sA_0_0_-0.600_sB_0_0_0.600/Lev3         1.4311614393313037e-06         0.0974342987820007         3.1795853818619075e-06
../SimulationAnnex/Catalog/ChuAlignedRuns/BBH_SKS_d16.6_q2_sA_0_0_-0.871_sB_0_0_0.850/Lev3         1.9914182968419264e-05         0.23830752856300025         1.2839667620510824e-05
../SimulationAnnex/Catalog/ChuAlignedRuns/BBH_SKS_d16.6_q3_sA_0_0_-0.600_sB_0_0_-0.400/Lev3         1.0270901789692042e-05         0.06525691926661849         2.170468009685785e-05
../SimulationAnnex/Catalog/ChuAlignedRuns/BBH_SKS_d16.7_q3_sA_0_0_-0.600_sB_0_0_-0.600/Lev3         1.4994982938720314e-05         0.034060519913739484         1.3090965410778689e-05
../SimulationAnnex/Catalog/ChuAlignedRuns/BBH_SKS_d16.9_q2_sA_0_0_-0.129_sB_0_0_-0.850/Lev3         1.7235089679749402e-05         0.17580328545364346         1.565914394528703e-05
../SimulationAnnex/Catalog/ChuAlignedRuns/BBH_SKS_d17.1_q1_sA_0_0_0.400_sB_0_0_-0.800/Lev3         3.2735673786393783e-07         0.17097196935939601         3.2883406617192317e-06
../SimulationAnnex/Catalog/ChuAlignedRuns/BBH_SKS_d17.1_q1_sA_0_0_0.500_sB_0_0_-0.900/Lev3         1.1347016272871903e-06         0.26370549052843717         2.6273345355010728e-06
../SimulationAnnex/Catalog/ChuAlignedRuns/BBH_SKS_d17.1_q2_sA_0_0_-0.600_sB_0_0_0/Lev3         6.667428094964003e-06         0.0890234528472364         8.298671873642185e-06
../SimulationAnnex/Catalog/ChuAlignedRuns/BBH_SKS_d17.5_q1_sA_0_0_-0.600_sB_0_0_0/Lev3         4.822386086705494e-07         0.08589985384448622         7.033464400851847e-07
../SimulationAnnex/Catalog/ChuAlignedRuns/BBH_SKS_d17.8_q3_sA_0_0_-0.850_sB_0_0_-0.850/Lev3         1.3958938943442773e-05         0.053459136298326965         1.7519628268825354e-05
../SimulationAnnex/Catalog/ChuAlignedRuns/BBH_SKS_d17.9_q2_sA_0_0_-0.600_sB_0_0_-0.600/Lev3         1.9382473771200272e-05         0.032212107679131005         6.276163260707373e-06
../SimulationAnnex/Catalog/ChuAlignedRuns/BBH_SKS_d18.7_q1_sA_0_0_-0.400_sB_0_0_-0.800/Lev3         8.764185583634339e-07         0.17234736035245546         1.5445961970468245e-06
../SimulationAnnex/Catalog/ChuAlignedRuns/BBH_SKS_d18.7_q1_sA_0_0_-0.600_sB_0_0_-0.600/Lev3         5.349935860935888e-07         0.0001296195361187533         1.083203519249768e-06
../SimulationAnnex/Catalog/ChuAlignedRuns/BBH_SKS_d18_q1_sA_0_0_-0.625_sB_0_0_-0.250/Lev3         5.576354639741948e-07         0.08615391475639735         3.98570060781618e-07
../SimulationAnnex/Catalog/ChuAlignedRuns/BBH_SKS_d18_q1_sA_0_0_-0.900_sB_0_0_0/Lev3         2.0497582532905813e-06         0.30924868137410866         1.3439607632386084e-06
../SimulationAnnex/Catalog/ChuAlignedRuns/BBH_SKS_d19.1_q2_sA_0_0_-0.850_sB_0_0_-0.850/Lev3         5.505823519151692e-06         0.03783555016641365         8.01600876943011e-06
../SimulationAnnex/Catalog/ChuAlignedRuns/BBH_SKS_d19.2_q1_sA_0_0_-0.900_sB_0_0_-0.500/Lev3         2.163143008221601e-06         0.2700144041161999         6.6061896885823955e-06
../SimulationAnnex/Catalog/ChuAlignedRuns/BBH_SKS_d19.8_q1_sA_0_0_-0.800_sB_0_0_-0.800/Lev3         2.2086878001714798e-07         6.738377793323555e-05         8.52748020486648e-09
../SimulationAnnex/Catalog/ChuAlignedRuns/BBH_CFMS_d11.2_q10_sA_0_0_0_sB_0_0_0/Lev4         4.095278582766497e-06         0.018017413600127936         8.219594164553472e-06
../SimulationAnnex/Catalog/ChuAlignedRuns/BBH_CFMS_d11.3_q9.50_sA_0_0_0_sB_0_0_0/Lev4         3.5578879447567496e-06         0.01742768798556734         9.061301188590844e-06
../SimulationAnnex/Catalog/ChuAlignedRuns/BBH_CFMS_d11.4_q9_sA_0_0_0_sB_0_0_0/Lev4         4.195425634125976e-06         0.018304036915816963         9.302488442962705e-06
../SimulationAnnex/Catalog/ChuAlignedRuns/BBH_CFMS_d11.5_q8.50_sA_0_0_0_sB_0_0_0/Lev4         4.240358771124969e-06         0.019183769657522384         9.8200395935747e-06
../SimulationAnnex/Catalog/ChuAlignedRuns/BBH_CFMS_d12.1_q7.50_sA_0_0_0_sB_0_0_0/Lev4         4.294809244634617e-06         0.020749110541242077         9.218007892890513e-06
../SimulationAnnex/Catalog/ChuAlignedRuns/BBH_CFMS_d12.2_q7_sA_0_0_0_sB_0_0_0/Lev4         3.5746674255331235e-06         0.02004308515583018         8.845384254259017e-06
../SimulationAnnex/Catalog/ChuAlignedRuns/BBH_CFMS_d12.4_q6.50_sA_0_0_0_sB_0_0_0/Lev4         3.4834897726799116e-06         0.020585654120478546         8.698303572353042e-06
../SimulationAnnex/Catalog/ChuAlignedRuns/BBH_CFMS_d14.3_q3_sA_0_0_0.500_sB_0_0_0.500/Lev4         2.1022701243212193e-06         0.01817547546419696         5.631726636204164e-06
../SimulationAnnex/Catalog/ChuAlignedRuns/BBH_CFMS_d14.5_q5.50_sA_0_0_0_sB_0_0_0/Lev4         4.938467717772e-06         0.025609521742778318         1.0045155054211152e-05
../SimulationAnnex/Catalog/ChuAlignedRuns/BBH_CFMS_d14.6_q3_sA_0_0_0.300_sB_0_0_0.300/Lev4         2.189536106693841e-06         0.020404476456252593         5.181739397759333e-06
../SimulationAnnex/Catalog/ChuAlignedRuns/BBH_CFMS_d14.7_q3_sA_0_0_0.300_sB_0_0_0/Lev4         2.0975997415295017e-06         0.019671656549158763         5.812368463152178e-06
../SimulationAnnex/Catalog/ChuAlignedRuns/BBH_CFMS_d14.8_q3_sA_0_0_0.300_sB_0_0_-0.300/Lev4         2.020089999756969e-06         0.01820581724746022         5.5500910344518894e-06
../SimulationAnnex/Catalog/ChuAlignedRuns/BBH_CFMS_d15.1_q4.50_sA_0_0_0_sB_0_0_0/Lev4         4.63777776651172e-06         0.026157109196553778         9.977811787741569e-06
../SimulationAnnex/Catalog/ChuAlignedRuns/BBH_CFMS_d15.3_q3_sA_0_0_0_sB_0_0_-0.300/Lev4         1.7159688782284936e-06         0.02189258516829548         4.673552954085253e-06
../SimulationAnnex/Catalog/ChuAlignedRuns/BBH_CFMS_d15.5_q2_sA_0_0_0.300_sB_0_0_0.300/Lev4         1.5010351599242024e-06         0.015889922914264453         3.890755795691031e-06
../SimulationAnnex/Catalog/ChuAlignedRuns/BBH_CFMS_d15.5_q3_sA_0_0_-0.300_sB_0_0_0.300/Lev4         6.345865389963246e-06         0.02986333662754909         1.1967029082990325e-05
../SimulationAnnex/Catalog/ChuAlignedRuns/BBH_CFMS_d15.6_q2_sA_0_0_0.300_sB_0_0_0/Lev4         1.9355547431526137e-06         0.014416264157041525         5.332839573823734e-06
../SimulationAnnex/Catalog/ChuAlignedRuns/BBH_CFMS_d15.6_q3_sA_0_0_-0.300_sB_0_0_0/Lev4         5.318604102318519e-06         0.02810924531898127         1.1783914865788604e-05
../SimulationAnnex/Catalog/ChuAlignedRuns/BBH_CFMS_d15.8_q2_sA_0_0_0.300_sB_0_0_-0.300/Lev4         2.931733496376652e-06         0.013143051722460473         8.019146323318444e-06
../SimulationAnnex/Catalog/ChuAlignedRuns/BBH_CFMS_d15.8_q2_sA_0_0_0_sB_0_0_0.300/Lev4         2.9274733732867357e-06         0.01930237947964927         7.1771915593463146e-06
../SimulationAnnex/Catalog/ChuAlignedRuns/BBH_CFMS_d15.8_q3_sA_0_0_-0.300_sB_0_0_-0.300/Lev4         3.98658432274044e-06         0.02699585992213512         8.969169365604046e-06
../SimulationAnnex/Catalog/ChuAlignedRuns/BBH_CFMS_d15.9_q3.50_sA_0_0_0_sB_0_0_0/Lev4         4.164472109857949e-06         0.026239517570612412         7.865515261855074e-06
../SimulationAnnex/Catalog/ChuAlignedRuns/BBH_CFMS_d15_q3_sA_0_0_0_sB_0_0_0.300/Lev4         3.872318574661043e-06         0.024314410491502802         7.590819340507606e-06
../SimulationAnnex/Catalog/ChuAlignedRuns/BBH_CFMS_d16.2_q2_sA_0_0_0_sB_0_0_-0.300/Lev4         1.023539940998243e-06         0.01567299820148414         2.8226114773901174e-06
../SimulationAnnex/Catalog/ChuAlignedRuns/BBH_CFMS_d16.3_q2_sA_0_0_-0.300_sB_0_0_0.300/Lev4         6.076705150342592e-06         0.02643446254045522         1.021737995231912e-05
../SimulationAnnex/Catalog/ChuAlignedRuns/BBH_CFMS_d16.4_q1_sA_0_0_0.300_sB_0_0_0/Lev4         2.1406980919962844e-06         0.005320286115205974         5.8006863599427404e-06
../SimulationAnnex/Catalog/ChuAlignedRuns/BBH_CFMS_d16.4_q2_sA_0_0_0.500_sB_0_0_0.500/Lev4         1.5541759423906184e-06         0.01431636561039438         4.31122334305062e-06
../SimulationAnnex/Catalog/ChuAlignedRuns/BBH_CFMS_d16.4_q3_sA_0_0_-0.500_sB_0_0_-0.500/Lev4         6.2452643072058675e-06         0.028861409731649013         1.1130279833486727e-05
../SimulationAnnex/Catalog/ChuAlignedRuns/BBH_CFMS_d16.5_q2_sA_0_0_-0.300_sB_0_0_0/Lev4         4.807272194299438e-06         0.024188461347919864         9.709854449784897e-06
../SimulationAnnex/Catalog/ChuAlignedRuns/BBH_CFMS_d16.8_q2_sA_0_0_-0.300_sB_0_0_-0.300/Lev4         2.3906362272295335e-06         0.02042962945757052         5.453031954531841e-06
../SimulationAnnex/Catalog/ChuAlignedRuns/BBH_CFMS_d16.9_q2.50_sA_0_0_0_sB_0_0_0/Lev4         3.1826672988785817e-06         0.023397744310930432         6.794896790399207e-06
../SimulationAnnex/Catalog/ChuAlignedRuns/BBH_CFMS_d17.1_q1_sA_0_0_-0.300_sB_0_0_0/Lev4         2.563382670661881e-06         0.005696622143222601         4.132085057543935e-06
../SimulationAnnex/Catalog/ChuAlignedRuns/BBH_CFMS_d18.2_q1_sA_0_0_-0.500_sB_0_0_0.500/Lev4         1.6778838398016103e-05         0.016174042177955286         1.3679252118556056e-05
../SimulationAnnex/Catalog/ChuAlignedRuns/BBH_CFMS_d18.2_q1_sA_0_0_-0.500_sB_0_0_0.500_rerun/Lev4         1.593721014332389e-05         0.013523959395354088         4.9930097129302165e-05
../SimulationAnnex/Catalog/ChuAlignedRuns/BBH_CFMS_d19.2_q2_sA_0_0_-0.500_sB_0_0_-0.500/Lev4         4.818102818414223e-06         0.02512318191978898         8.813016514116025e-06
../SimulationAnnex/Catalog/ChuAlignedRuns/BBH_SKS_d13.9_q3_sA_0_0_0.850_sB_0_0_0.850/Lev4         8.649513625940392e-06         0.0029414707146062716         8.12970093034801e-06
../SimulationAnnex/Catalog/ChuAlignedRuns/BBH_SKS_d14.2_q3_sA_0_0_0.600_sB_0_0_0.400/Lev4         1.1537400963087688e-05         0.03854911239374959         4.774163082743762e-06
../SimulationAnnex/Catalog/ChuAlignedRuns/BBH_SKS_d14.2_q3_sA_0_0_0.600_sB_0_0_0.600/Lev4         9.584608814064943e-06         0.0008271470727180724         1.4275282407839043e-05
../SimulationAnnex/Catalog/ChuAlignedRuns/BBH_SKS_d14.3_q3_sA_0_0_0.600_sB_0_0_0/Lev4         1.60096179218895e-05         0.07186545096734973         2.6559898370385953e-05
../SimulationAnnex/Catalog/ChuAlignedRuns/BBH_SKS_d14.3_q3_sA_0_0_0.731_sB_0_0_-0.850/Lev4         1.9368170372215652e-05         0.12212910943341751         3.917163407985431e-06
../SimulationAnnex/Catalog/ChuAlignedRuns/BBH_SKS_d14.4_q3_sA_0_0_0.400_sB_0_0_0.600/Lev4         9.870554258403705e-06         0.03497727959057919         1.4514911338730423e-05
../SimulationAnnex/Catalog/ChuAlignedRuns/BBH_SKS_d14.4_q3_sA_0_0_0.600_sB_0_0_-0.400/Lev4         6.828369673802306e-06         0.07239624974597626         1.626196194843741e-05
../SimulationAnnex/Catalog/ChuAlignedRuns/BBH_SKS_d14.5_q3_sA_0_0_0.269_sB_0_0_0.850/Lev4         1.1289768575187432e-05         0.1499685015730837         9.431474692517775e-06
../SimulationAnnex/Catalog/ChuAlignedRuns/BBH_SKS_d14.5_q3_sA_0_0_0.600_sB_0_0_-0.600/Lev4         1.2755645012617803e-05         0.0686068368850956         1.2368867431266572e-05
../SimulationAnnex/Catalog/ChuAlignedRuns/BBH_SKS_d14.7_q2_sA_0_0_0.850_sB_0_0_0.850/Lev4         2.9685591457728847e-06         0.003966957010925447         1.2683739845776215e-05
../SimulationAnnex/Catalog/ChuAlignedRuns/BBH_SKS_d14.7_q3_sA_0_0_0.400_sB_0_0_-0.600/Lev4         1.240265308447567e-05         0.04678467857698627         7.176853589595913e-06
../SimulationAnnex/Catalog/ChuAlignedRuns/BBH_SKS_d14.9_q3_sA_0_0_0_sB_0_0_0.600/Lev4         5.355501797322577e-06         0.0662854748684991         5.4610820261292444e-06
../SimulationAnnex/Catalog/ChuAlignedRuns/BBH_SKS_d15.1_q3_sA_0_0_-0.231_sB_0_0_0.850/Lev4         1.2692353507745647e-05         0.17162434031436366         1.9348743911903065e-05
../SimulationAnnex/Catalog/ChuAlignedRuns/BBH_SKS_d15.1_q3_sA_0_0_0.231_sB_0_0_-0.850/Lev4         8.889211149459368e-06         0.1268630938512427         6.535438998254384e-06
../SimulationAnnex/Catalog/ChuAlignedRuns/BBH_SKS_d15.2_q2_sA_0_0_0.600_sB_0_0_0/Lev4         7.63401155259706e-06         0.08774649827563544         7.4237418109849015e-06
../SimulationAnnex/Catalog/ChuAlignedRuns/BBH_SKS_d15.2_q2_sA_0_0_0.871_sB_0_0_-0.850/Lev4         4.481721177005986e-06         0.20586523786756128         1.444161392444732e-05
../SimulationAnnex/Catalog/ChuAlignedRuns/BBH_SKS_d15.4_q1_sA_0_0_0.800_sB_0_0_0.800/Lev4         3.994595041315676e-09         4.561113329478823e-06         3.2115260844383227e-07
../SimulationAnnex/Catalog/ChuAlignedRuns/BBH_SKS_d15.4_q2_sA_0_0_0.129_sB_0_0_0.850/Lev4         1.1702486412267341e-05         0.20507398957098846         2.7976087490907224e-05
../SimulationAnnex/Catalog/ChuAlignedRuns/BBH_SKS_d15.4_q3_sA_0_0_0_sB_0_0_-0.600/Lev4         1.4308707066380767e-05         0.04000258123675811         1.6611167140464254e-05
../SimulationAnnex/Catalog/ChuAlignedRuns/BBH_SKS_d15.5_q1_sA_0_0_0.900_sB_0_0_0.500/Lev4         7.698363160704e-07         0.22685265611546734         5.329079004619801e-06
../SimulationAnnex/Catalog/ChuAlignedRuns/BBH_SKS_d15.5_q2_sA_0_0_0.600_sB_0_0_-0.600/Lev4         8.210288793944726e-06         0.08414516046977333         1.046637939116157e-05
../SimulationAnnex/Catalog/ChuAlignedRuns/BBH_SKS_d15.5_q3_sA_0_0_-0.400_sB_0_0_0.600/Lev4         9.215727820178509e-06         0.06481624729920464         1.0731453289979046e-05
../SimulationAnnex/Catalog/ChuAlignedRuns/BBH_SKS_d15.6_q1_sA_0_0_0.400_sB_0_0_0.800/Lev4         1.3931578331902568e-06         0.15613556789658609         1.3253421277045684e-06
../SimulationAnnex/Catalog/ChuAlignedRuns/BBH_SKS_d15.6_q1_sA_0_0_0.600_sB_0_0_0.600/Lev4         5.556240901701322e-08         3.7923472298562476e-06         2.7144242966238953e-07
../SimulationAnnex/Catalog/ChuAlignedRuns/BBH_SKS_d15.6_q2_sA_0_0_0_sB_0_0_0.600/Lev4         1.2128935098046063e-05         0.08375083694746907         2.3374268821285392e-05
../SimulationAnnex/Catalog/ChuAlignedRuns/BBH_SKS_d15.8_q1_sA_0_0_0.650_sB_0_0_0.250/Lev4         7.894190548751183e-07         0.09957832055677632         2.8340347091042586e-06
../SimulationAnnex/Catalog/ChuAlignedRuns/BBH_SKS_d15.8_q1_sA_0_0_0.900_sB_0_0_0/Lev4         3.5032811818324346e-06         0.3007778294587762         8.594009252327082e-06
../SimulationAnnex/Catalog/ChuAlignedRuns/BBH_SKS_d15.8_q3_sA_0_0_-0.600_sB_0_0_0.600/Lev4         1.973759205149862e-05         0.07215988261789516         1.1534632137885882e-05
../SimulationAnnex/Catalog/ChuAlignedRuns/BBH_SKS_d15.8_q3_sA_0_0_-0.731_sB_0_0_0.850/Lev4         7.494652122037964e-06         0.16135533335248078         9.011635095284679e-06
../SimulationAnnex/Catalog/ChuAlignedRuns/BBH_SKS_d15.9_q2_sA_0_0_-0.371_sB_0_0_0.850/Lev4         6.403317512566493e-06         0.21190216373037415         1.5869307010675763e-05
../SimulationAnnex/Catalog/ChuAlignedRuns/BBH_SKS_d15.9_q2_sA_0_0_0.371_sB_0_0_-0.850/Lev4         5.02338282152019e-06         0.16339156973076782         1.4733015632383396e-05
../SimulationAnnex/Catalog/ChuAlignedRuns/BBH_SKS_d15.9_q3_sA_0_0_-0.600_sB_0_0_0.400/Lev4         1.0809359195323827e-05         0.06617479258667798         7.469830940246467e-06
../SimulationAnnex/Catalog/ChuAlignedRuns/BBH_SKS_d15_q2_sA_0_0_0.600_sB_0_0_0.600/Lev4         3.6854162856779487e-06         0.002616626913781176         1.309206791361442e-05
../SimulationAnnex/Catalog/ChuAlignedRuns/BBH_SKS_d16.1_q1_sA_0_0_-0.500_sB_0_0_0.900/Lev4         1.3373486445640909e-06         0.290031536818447         5.365552424220557e-06
../SimulationAnnex/Catalog/ChuAlignedRuns/BBH_SKS_d16.1_q1_sA_0_0_0.600_sB_0_0_0/Lev4         1.2899171781822192e-06         0.10277945967990744         4.009855009750683e-06
../SimulationAnnex/Catalog/ChuAlignedRuns/BBH_SKS_d16.1_q3_sA_0_0_-0.269_sB_0_0_-0.850/Lev4         2.8076261076046924e-05         0.1240797656879092         2.666373382601584e-05
../SimulationAnnex/Catalog/ChuAlignedRuns/BBH_SKS_d16.2_q1_sA_0_0_-0.400_sB_0_0_0.800/Lev4         1.2012315831951025e-06         0.20124270591867988         2.1833675857539743e-06
../SimulationAnnex/Catalog/ChuAlignedRuns/BBH_SKS_d16.2_q3_sA_0_0_-0.400_sB_0_0_-0.600/Lev4         1.56102630595126e-05         0.015101698400646086         1.3941514689564263e-05
../SimulationAnnex/Catalog/ChuAlignedRuns/BBH_SKS_d16.2_q3_sA_0_0_-0.600_sB_0_0_0/Lev4         1.5199205305620904e-05         0.0790938387388766         1.0455453717118381e-05
../SimulationAnnex/Catalog/ChuAlignedRuns/BBH_SKS_d16.5_q1_sA_0_0_-0.800_sB_0_0_0.800/Lev4         3.3896634064480217e-07         0.19554826357607988         2.024968275611148e-06
../SimulationAnnex/Catalog/ChuAlignedRuns/BBH_SKS_d16.5_q1_sA_0_0_-0.900_sB_0_0_0.900/Lev4         4.472441478315669e-06         0.30408063972289956         2.5248854364046576e-06
../SimulationAnnex/Catalog/ChuAlignedRuns/BBH_SKS_d16.5_q2_sA_0_0_-0.600_sB_0_0_0.600/Lev4         1.2862292125911443e-05         0.08777925175267323         1.2146519726721583e-05
../SimulationAnnex/Catalog/ChuAlignedRuns/BBH_SKS_d16.5_q2_sA_0_0_0_sB_0_0_-0.600/Lev4         2.031772024890029e-05         0.058339979742744394         1.5228704216357077e-05
../SimulationAnnex/Catalog/ChuAlignedRuns/BBH_SKS_d16.6_q1_sA_0_0_-0.600_sB_0_0_0.600/Lev4         4.414972331126846e-07         0.09720235634783837         2.305440105074947e-06
../SimulationAnnex/Catalog/ChuAlignedRuns/BBH_SKS_d16.6_q2_sA_0_0_-0.871_sB_0_0_0.850/Lev4         1.707365142735672e-05         0.2360744607485815         1.3763735877100949e-05
../SimulationAnnex/Catalog/ChuAlignedRuns/BBH_SKS_d16.6_q3_sA_0_0_-0.600_sB_0_0_-0.400/Lev4         9.821043405461232e-06         0.0636855133559185         1.7443639880581835e-05
../SimulationAnnex/Catalog/ChuAlignedRuns/BBH_SKS_d16.7_q3_sA_0_0_-0.600_sB_0_0_-0.600/Lev4         6.617911398122586e-06         0.03260572370610962         1.7385994071663784e-05
../SimulationAnnex/Catalog/ChuAlignedRuns/BBH_SKS_d16.9_q2_sA_0_0_-0.129_sB_0_0_-0.850/Lev4         2.2529388460001285e-05         0.17871317276700885         1.0755945822235524e-05
../SimulationAnnex/Catalog/ChuAlignedRuns/BBH_SKS_d17.1_q1_sA_0_0_0.400_sB_0_0_-0.800/Lev4         2.0754351139230557e-06         0.17125762659082605         4.6137465939614174e-06
../SimulationAnnex/Catalog/ChuAlignedRuns/BBH_SKS_d17.1_q1_sA_0_0_0.500_sB_0_0_-0.900/Lev4         1.0611645623144712e-06         0.26396492972442703         3.089409466441498e-06
../SimulationAnnex/Catalog/ChuAlignedRuns/BBH_SKS_d17.1_q2_sA_0_0_-0.600_sB_0_0_0/Lev4         8.784790851179934e-06         0.08728226280682096         6.436860959407796e-06
../SimulationAnnex/Catalog/ChuAlignedRuns/BBH_SKS_d17.5_q1_sA_0_0_-0.600_sB_0_0_0/Lev4         7.01830325231306e-07         0.08607162083236296         6.806271443661163e-07
../SimulationAnnex/Catalog/ChuAlignedRuns/BBH_SKS_d17.8_q3_sA_0_0_-0.850_sB_0_0_-0.850/Lev4         1.7512738024117162e-06         0.05027988693098919         1.8051839377858036e-05
../SimulationAnnex/Catalog/ChuAlignedRuns/BBH_SKS_d17.9_q2_sA_0_0_-0.600_sB_0_0_-0.600/Lev4         8.931641289373538e-06         0.02874273527964778         1.4616663860117537e-05
../SimulationAnnex/Catalog/ChuAlignedRuns/BBH_SKS_d18.7_q1_sA_0_0_-0.400_sB_0_0_-0.800/Lev4         1.3428759086259e-06         0.17270021520384637         1.3462945082255807e-06
../SimulationAnnex/Catalog/ChuAlignedRuns/BBH_SKS_d18.7_q1_sA_0_0_-0.600_sB_0_0_-0.600/Lev4         9.82991409084901e-08         8.678539915816016e-06         5.260185676989335e-07
../SimulationAnnex/Catalog/ChuAlignedRuns/BBH_SKS_d18_q1_sA_0_0_-0.625_sB_0_0_-0.250/Lev4         5.874210017911599e-07         0.08629990742376689         7.693617689851555e-07
../SimulationAnnex/Catalog/ChuAlignedRuns/BBH_SKS_d18_q1_sA_0_0_-0.900_sB_0_0_0/Lev4         1.4028605544796142e-06         0.3097150296293047         2.6893950831125695e-06
../SimulationAnnex/Catalog/ChuAlignedRuns/BBH_SKS_d19.1_q2_sA_0_0_-0.850_sB_0_0_-0.850/Lev4         9.684967248037479e-06         0.0381860933519651         3.545620986592467e-06
../SimulationAnnex/Catalog/ChuAlignedRuns/BBH_SKS_d19.2_q1_sA_0_0_-0.900_sB_0_0_-0.500/Lev4         2.613613942857617e-06         0.2704854211697112         7.078124974557429e-06
../SimulationAnnex/Catalog/ChuAlignedRuns/BBH_SKS_d19.8_q1_sA_0_0_-0.800_sB_0_0_-0.800/Lev4         9.460012472655066e-09         7.5915605983055755e-06         2.302153060803964e-07
../SimulationAnnex/Catalog/ChuAlignedRuns/BBH_CFMS_d11.2_q10_sA_0_0_0_sB_0_0_0/Lev5         3.6036064907267167e-06         0.016985894939883422         8.882387553727351e-06
../SimulationAnnex/Catalog/ChuAlignedRuns/BBH_CFMS_d11.3_q9.50_sA_0_0_0_sB_0_0_0/Lev5         4.3785306942164816e-06         0.018281970388080552         9.349500688872242e-06
../SimulationAnnex/Catalog/ChuAlignedRuns/BBH_CFMS_d11.4_q9_sA_0_0_0_sB_0_0_0/Lev5         3.7865297764816683e-06         0.018719234823596442         8.052829034232065e-06
../SimulationAnnex/Catalog/ChuAlignedRuns/BBH_CFMS_d11.5_q8.50_sA_0_0_0_sB_0_0_0/Lev5         4.191935489551586e-06         0.019171373950985504         9.778217943390284e-06
../SimulationAnnex/Catalog/ChuAlignedRuns/BBH_CFMS_d12.1_q7.50_sA_0_0_0_sB_0_0_0/Lev5         3.3939602085653243e-06         0.01932278102379671         9.135724304208167e-06
../SimulationAnnex/Catalog/ChuAlignedRuns/BBH_CFMS_d12.2_q7_sA_0_0_0_sB_0_0_0/Lev5         3.5291899639472096e-06         0.020042762402828592         8.810278357090736e-06
../SimulationAnnex/Catalog/ChuAlignedRuns/BBH_CFMS_d12.4_q6.50_sA_0_0_0_sB_0_0_0/Lev5         3.435805899498174e-06         0.020585493226421423         8.665077643928155e-06
../SimulationAnnex/Catalog/ChuAlignedRuns/BBH_CFMS_d14.3_q3_sA_0_0_0.500_sB_0_0_0.500/Lev5         1.894156244766621e-06         0.018020431685596243         5.424060874990727e-06
../SimulationAnnex/Catalog/ChuAlignedRuns/BBH_CFMS_d14.5_q5.50_sA_0_0_0_sB_0_0_0/Lev5         4.911117638789123e-06         0.025606601212707688         1.0041479447240734e-05
../SimulationAnnex/Catalog/ChuAlignedRuns/BBH_CFMS_d14.6_q3_sA_0_0_0.300_sB_0_0_0.300/Lev5         2.165871600569401e-06         0.02038906790655245         5.181075852755953e-06
../SimulationAnnex/Catalog/ChuAlignedRuns/BBH_CFMS_d14.7_q3_sA_0_0_0.300_sB_0_0_0/Lev5         2.1157682252559026e-06         0.019658697459353218         5.829647354953857e-06
../SimulationAnnex/Catalog/ChuAlignedRuns/BBH_CFMS_d14.8_q3_sA_0_0_0.300_sB_0_0_-0.300/Lev5         2.127967477483688e-06         0.01818937561888538         5.656037449992272e-06
../SimulationAnnex/Catalog/ChuAlignedRuns/BBH_CFMS_d15.1_q4.50_sA_0_0_0_sB_0_0_0/Lev5         4.596997829388247e-06         0.02615331993425051         9.94873572556805e-06
../SimulationAnnex/Catalog/ChuAlignedRuns/BBH_CFMS_d15.3_q3_sA_0_0_0_sB_0_0_-0.300/Lev5         1.649177212709006e-06         0.021891798522716364         4.629659353903366e-06
../SimulationAnnex/Catalog/ChuAlignedRuns/BBH_CFMS_d15.5_q2_sA_0_0_0.300_sB_0_0_0.300/Lev5         1.51735738485482e-06         0.01584624716765871         3.937484174838155e-06
../SimulationAnnex/Catalog/ChuAlignedRuns/BBH_CFMS_d15.5_q3_sA_0_0_-0.300_sB_0_0_0.300/Lev5         6.346918013521141e-06         0.029869904101808325         1.1929982076562461e-05
../SimulationAnnex/Catalog/ChuAlignedRuns/BBH_CFMS_d15.6_q2_sA_0_0_0.300_sB_0_0_0/Lev5         2.053381058131746e-06         0.014363725694356896         5.449826893186606e-06
../SimulationAnnex/Catalog/ChuAlignedRuns/BBH_CFMS_d15.6_q3_sA_0_0_-0.300_sB_0_0_0/Lev5         5.305525856163463e-06         0.02811051671930184         1.1780354761052651e-05
../SimulationAnnex/Catalog/ChuAlignedRuns/BBH_CFMS_d15.8_q2_sA_0_0_0.300_sB_0_0_-0.300/Lev5         3.126937800097345e-06         0.01307849253985078         8.214480812688308e-06
../SimulationAnnex/Catalog/ChuAlignedRuns/BBH_CFMS_d15.8_q2_sA_0_0_0_sB_0_0_0.300/Lev5         2.6546460841286743e-06         0.01932903856887722         6.664475372004399e-06
../SimulationAnnex/Catalog/ChuAlignedRuns/BBH_CFMS_d15.8_q3_sA_0_0_-0.300_sB_0_0_-0.300/Lev5         3.925457957571077e-06         0.026993412890834862         8.962912269675842e-06
../SimulationAnnex/Catalog/ChuAlignedRuns/BBH_CFMS_d15_q3_sA_0_0_0_sB_0_0_0.300/Lev5         3.841027148923928e-06         0.024307409276410976         7.542164723801123e-06
../SimulationAnnex/Catalog/ChuAlignedRuns/BBH_CFMS_d16.2_q2_sA_0_0_0_sB_0_0_-0.300/Lev5         1.062746303972608e-06         0.015663394990953285         2.8582544081817424e-06
../SimulationAnnex/Catalog/ChuAlignedRuns/BBH_CFMS_d16.3_q2_sA_0_0_-0.300_sB_0_0_0.300/Lev5         6.209444382729312e-06         0.026488369912507838         1.0165894983085396e-05
../SimulationAnnex/Catalog/ChuAlignedRuns/BBH_CFMS_d16.4_q1_sA_0_0_0.300_sB_0_0_0/Lev5         2.2401819078838796e-06         0.005332647113519332         5.9029291705746886e-06
../SimulationAnnex/Catalog/ChuAlignedRuns/BBH_CFMS_d16.4_q2_sA_0_0_0.500_sB_0_0_0.500/Lev5         1.8680028844180815e-06         0.014713612620215357         4.6303484848091685e-06
../SimulationAnnex/Catalog/ChuAlignedRuns/BBH_CFMS_d16.4_q3_sA_0_0_-0.500_sB_0_0_-0.500/Lev5         6.663853153324196e-06         0.029666286731302068         1.1447289277714873e-05
../SimulationAnnex/Catalog/ChuAlignedRuns/BBH_CFMS_d16.5_q2_sA_0_0_-0.300_sB_0_0_0/Lev5         4.885789303818881e-06         0.024233768155039786         9.707707063802255e-06
../SimulationAnnex/Catalog/ChuAlignedRuns/BBH_CFMS_d16.8_q2_sA_0_0_-0.300_sB_0_0_-0.300/Lev5         2.4002017747034327e-06         0.02046026578575833         5.4590584894411945e-06
../SimulationAnnex/Catalog/ChuAlignedRuns/BBH_CFMS_d16.9_q2.50_sA_0_0_0_sB_0_0_0/Lev5         3.158485282316739e-06         0.023396665325745622         6.773900052341558e-06
../SimulationAnnex/Catalog/ChuAlignedRuns/BBH_CFMS_d17.1_q1_sA_0_0_-0.300_sB_0_0_0/Lev5         2.704740240603518e-06         0.005728872440061063         4.132645213494182e-06
../SimulationAnnex/Catalog/ChuAlignedRuns/BBH_CFMS_d18.2_q1_sA_0_0_-0.500_sB_0_0_0.500/Lev5         1.7696119356493017e-05         0.016362442038732126         1.2921328295236025e-05
../SimulationAnnex/Catalog/ChuAlignedRuns/BBH_CFMS_d19.2_q2_sA_0_0_-0.500_sB_0_0_-0.500/Lev5         5.130038848013984e-06         0.0253404127035321         8.874916600731496e-06
../SimulationAnnex/Catalog/ChuAlignedRuns/BBH_SKS_d13.9_q3_sA_0_0_0.850_sB_0_0_0.850/Lev5         9.874951440438083e-06         0.0031391339723325627         6.180433331333883e-06
../SimulationAnnex/Catalog/ChuAlignedRuns/BBH_SKS_d14.2_q3_sA_0_0_0.600_sB_0_0_0.400/Lev5         5.886095511143577e-06         0.03847656234134784         8.884481338053676e-06
../SimulationAnnex/Catalog/ChuAlignedRuns/BBH_SKS_d14.2_q3_sA_0_0_0.600_sB_0_0_0.600/Lev5         1.6292931609553697e-05         0.0015399443178641498         1.1405044546794191e-05
../SimulationAnnex/Catalog/ChuAlignedRuns/BBH_SKS_d14.3_q3_sA_0_0_0.600_sB_0_0_0/Lev5         2.582790431318552e-05         0.07239888708727109         1.6128771001229056e-05
../SimulationAnnex/Catalog/ChuAlignedRuns/BBH_SKS_d14.3_q3_sA_0_0_0.731_sB_0_0_-0.850/Lev5         7.4077516516210925e-06         0.12107935223812918         1.5789253351641005e-05
../SimulationAnnex/Catalog/ChuAlignedRuns/BBH_SKS_d14.4_q3_sA_0_0_0.400_sB_0_0_0.600/Lev5         1.546234985403157e-05         0.03447686203050438         1.2534900107033913e-05
../SimulationAnnex/Catalog/ChuAlignedRuns/BBH_SKS_d14.4_q3_sA_0_0_0.600_sB_0_0_-0.400/Lev5         1.2659669906209276e-05         0.07286901547597097         1.2242253675539873e-05
../SimulationAnnex/Catalog/ChuAlignedRuns/BBH_SKS_d14.5_q3_sA_0_0_0.269_sB_0_0_0.850/Lev5         1.1485962329079211e-05         0.14986692548274608         9.28392110457256e-06
../SimulationAnnex/Catalog/ChuAlignedRuns/BBH_SKS_d14.5_q3_sA_0_0_0.600_sB_0_0_-0.600/Lev5         9.614111862035795e-06         0.06898787577218414         1.5221638171642567e-05
../SimulationAnnex/Catalog/ChuAlignedRuns/BBH_SKS_d14.7_q2_sA_0_0_0.850_sB_0_0_0.850/Lev5         1.0401997589266882e-05         0.0032216549713673715         5.279489803945939e-06
../SimulationAnnex/Catalog/ChuAlignedRuns/BBH_SKS_d14.7_q3_sA_0_0_0.400_sB_0_0_-0.600/Lev5         8.2557483661614e-06         0.046811156973285487         1.197567888604586e-05
../SimulationAnnex/Catalog/ChuAlignedRuns/BBH_SKS_d14.9_q3_sA_0_0_0_sB_0_0_0.600/Lev5         3.887654795076008e-06         0.06606864348847521         6.866544275811842e-06
../SimulationAnnex/Catalog/ChuAlignedRuns/BBH_SKS_d15.1_q3_sA_0_0_-0.231_sB_0_0_0.850/Lev5         7.934182952739788e-06         0.17178515475477268         1.9762670094644457e-05
../SimulationAnnex/Catalog/ChuAlignedRuns/BBH_SKS_d15.1_q3_sA_0_0_0.231_sB_0_0_-0.850/Lev5         5.36907517710346e-06         0.12598939674989965         6.658235779598162e-06
../SimulationAnnex/Catalog/ChuAlignedRuns/BBH_SKS_d15.2_q2_sA_0_0_0.600_sB_0_0_0/Lev5         7.106408300924112e-06         0.0882696482447989         4.042811855448821e-06
../SimulationAnnex/Catalog/ChuAlignedRuns/BBH_SKS_d15.2_q2_sA_0_0_0.871_sB_0_0_-0.850/Lev5         1.1604940598129974e-05         0.2064335482767356         6.136799504884783e-06
../SimulationAnnex/Catalog/ChuAlignedRuns/BBH_SKS_d15.4_q1_sA_0_0_0.800_sB_0_0_0.800/Lev5         3.420079473334764e-08         5.5764294707981355e-06         3.3840172277136174e-07
../SimulationAnnex/Catalog/ChuAlignedRuns/BBH_SKS_d15.4_q2_sA_0_0_0.129_sB_0_0_0.850/Lev5         5.6659314440252725e-06         0.2047479605605167         2.8709850291105743e-05
../SimulationAnnex/Catalog/ChuAlignedRuns/BBH_SKS_d15.4_q3_sA_0_0_0_sB_0_0_-0.600/Lev5         1.6785206888942003e-05         0.040418417715138745         1.3405347721186573e-05
../SimulationAnnex/Catalog/ChuAlignedRuns/BBH_SKS_d15.5_q1_sA_0_0_0.900_sB_0_0_0.500/Lev5         1.3727585149789525e-06         0.22689175734134534         5.847063199040227e-06
../SimulationAnnex/Catalog/ChuAlignedRuns/BBH_SKS_d15.5_q2_sA_0_0_0.600_sB_0_0_-0.600/Lev5         6.5805288015695734e-06         0.08407450918843348         1.1322059252999315e-05
../SimulationAnnex/Catalog/ChuAlignedRuns/BBH_SKS_d15.5_q3_sA_0_0_-0.400_sB_0_0_0.600/Lev5         7.298975024442002e-06         0.06495828970068332         1.280493999221112e-05
../SimulationAnnex/Catalog/ChuAlignedRuns/BBH_SKS_d15.6_q1_sA_0_0_0.400_sB_0_0_0.800/Lev5         1.856036748661589e-06         0.15613352545969808         8.31459878666636e-07
../SimulationAnnex/Catalog/ChuAlignedRuns/BBH_SKS_d15.6_q1_sA_0_0_0.600_sB_0_0_0.600/Lev5         7.625636480042634e-08         4.284708053036139e-06         1.9125295819576033e-07
../SimulationAnnex/Catalog/ChuAlignedRuns/BBH_SKS_d15.6_q2_sA_0_0_0_sB_0_0_0.600/Lev5         8.314352179172708e-06         0.08384683432868019         2.4453345489964706e-05
../SimulationAnnex/Catalog/ChuAlignedRuns/BBH_SKS_d15.8_q1_sA_0_0_0.650_sB_0_0_0.250/Lev5         1.7349747966537211e-06         0.09956104901125688         3.7182672772603595e-06
../SimulationAnnex/Catalog/ChuAlignedRuns/BBH_SKS_d15.8_q1_sA_0_0_0.900_sB_0_0_0/Lev5         3.5061224277130018e-06         0.3009231158393953         8.664681906207833e-06
../SimulationAnnex/Catalog/ChuAlignedRuns/BBH_SKS_d15.8_q3_sA_0_0_-0.600_sB_0_0_0.600/Lev5         1.7856349288305215e-05         0.07230879191213138         1.1880047015807764e-05
../SimulationAnnex/Catalog/ChuAlignedRuns/BBH_SKS_d15.8_q3_sA_0_0_-0.731_sB_0_0_0.850/Lev5         5.467718698437752e-06         0.16184711267910157         1.4858459179112128e-05
../SimulationAnnex/Catalog/ChuAlignedRuns/BBH_SKS_d15.9_q2_sA_0_0_-0.371_sB_0_0_0.850/Lev5         8.829885906738144e-06         0.21106587477534064         7.985084037916885e-06
../SimulationAnnex/Catalog/ChuAlignedRuns/BBH_SKS_d15.9_q2_sA_0_0_0.371_sB_0_0_-0.850/Lev5         7.0304476516817554e-06         0.16372498323913703         4.4654768395621785e-06
../SimulationAnnex/Catalog/ChuAlignedRuns/BBH_SKS_d15.9_q3_sA_0_0_-0.600_sB_0_0_0.400/Lev5         1.2328432786100077e-05         0.06678914368259395         5.8457132797572815e-06
../SimulationAnnex/Catalog/ChuAlignedRuns/BBH_SKS_d15_q2_sA_0_0_0.600_sB_0_0_0.600/Lev5         1.2967498621295347e-05         0.0027358867644926457         4.949613900338082e-06
../SimulationAnnex/Catalog/ChuAlignedRuns/BBH_SKS_d16.1_q1_sA_0_0_-0.500_sB_0_0_0.900/Lev5         1.3591667296111516e-06         0.2899640090017279         2.8253621259575494e-06
../SimulationAnnex/Catalog/ChuAlignedRuns/BBH_SKS_d16.1_q1_sA_0_0_0.600_sB_0_0_0/Lev5         2.223804946772511e-06         0.10276788330802107         4.904297333903677e-06
../SimulationAnnex/Catalog/ChuAlignedRuns/BBH_SKS_d16.1_q3_sA_0_0_-0.269_sB_0_0_-0.850/Lev5         2.946670569819159e-05         0.12429752463689638         2.527246212810546e-05
../SimulationAnnex/Catalog/ChuAlignedRuns/BBH_SKS_d16.2_q1_sA_0_0_-0.400_sB_0_0_0.800/Lev5         2.674703213678848e-06         0.20122594720264944         7.084925747107194e-07
../SimulationAnnex/Catalog/ChuAlignedRuns/BBH_SKS_d16.2_q3_sA_0_0_-0.400_sB_0_0_-0.600/Lev5         1.7062778416968562e-05         0.015300121702515433         1.3160253976227349e-05
../SimulationAnnex/Catalog/ChuAlignedRuns/BBH_SKS_d16.2_q3_sA_0_0_-0.600_sB_0_0_0/Lev5         1.1945958573522606e-05         0.07997258615277564         1.1070480950245383e-05
../SimulationAnnex/Catalog/ChuAlignedRuns/BBH_SKS_d16.5_q1_sA_0_0_-0.800_sB_0_0_0.800/Lev5         6.785168333440847e-07         0.19556231444547564         1.747241115792265e-06
../SimulationAnnex/Catalog/ChuAlignedRuns/BBH_SKS_d16.5_q1_sA_0_0_-0.900_sB_0_0_0.900/Lev5         4.365272998078787e-06         0.304584114053773         3.936411236303357e-06
../SimulationAnnex/Catalog/ChuAlignedRuns/BBH_SKS_d16.5_q2_sA_0_0_-0.600_sB_0_0_0.600/Lev5         1.3017568142840419e-05         0.08799409270822832         1.2744552371452469e-05
../SimulationAnnex/Catalog/ChuAlignedRuns/BBH_SKS_d16.5_q2_sA_0_0_0_sB_0_0_-0.600/Lev5         1.5543139063442846e-05         0.05763531762945346         2.0201720964683352e-05
../SimulationAnnex/Catalog/ChuAlignedRuns/BBH_SKS_d16.6_q1_sA_0_0_-0.600_sB_0_0_0.600/Lev5         1.1101562797433837e-06         0.09711784767067248         1.043594224902966e-06
../SimulationAnnex/Catalog/ChuAlignedRuns/BBH_SKS_d16.6_q2_sA_0_0_-0.871_sB_0_0_0.850/Lev5         1.5533504527080777e-05         0.23551147897265903         1.700689642205935e-05
../SimulationAnnex/Catalog/ChuAlignedRuns/BBH_SKS_d16.6_q3_sA_0_0_-0.600_sB_0_0_-0.400/Lev5         1.4659034288578504e-05         0.06610438173917861         1.3548101633990582e-05
../SimulationAnnex/Catalog/ChuAlignedRuns/BBH_SKS_d16.7_q3_sA_0_0_-0.600_sB_0_0_-0.600/Lev5         1.70337860266534e-05         0.032018601311427974         1.5623902592106547e-05
../SimulationAnnex/Catalog/ChuAlignedRuns/BBH_SKS_d16.9_q2_sA_0_0_-0.129_sB_0_0_-0.850/Lev5         1.612275517226149e-05         0.17791681139154747         1.654502544031368e-05
../SimulationAnnex/Catalog/ChuAlignedRuns/BBH_SKS_d17.1_q1_sA_0_0_0.400_sB_0_0_-0.800/Lev5         2.142859972359068e-06         0.171162509602705         5.03290526949925e-06
../SimulationAnnex/Catalog/ChuAlignedRuns/BBH_SKS_d17.1_q1_sA_0_0_0.500_sB_0_0_-0.900/Lev5         1.355851597974631e-06         0.263921178249891         3.3594414054292303e-06
../SimulationAnnex/Catalog/ChuAlignedRuns/BBH_SKS_d17.1_q2_sA_0_0_-0.600_sB_0_0_0/Lev5         7.142451915919326e-06         0.08788065201507088         6.039617363445002e-06
../SimulationAnnex/Catalog/ChuAlignedRuns/BBH_SKS_d17.5_q1_sA_0_0_-0.600_sB_0_0_0/Lev5         6.297431731172741e-07         0.08605767443472064         5.268104179953037e-07
../SimulationAnnex/Catalog/ChuAlignedRuns/BBH_SKS_d17.8_q3_sA_0_0_-0.850_sB_0_0_-0.850/Lev5         1.1844926336781776e-05         0.050119369448296695         1.4450321848463342e-05
../SimulationAnnex/Catalog/ChuAlignedRuns/BBH_SKS_d17.9_q2_sA_0_0_-0.600_sB_0_0_-0.600/Lev5         9.732616388093303e-06         0.02824512529523421         1.6500900861406297e-05
../SimulationAnnex/Catalog/ChuAlignedRuns/BBH_SKS_d18.7_q1_sA_0_0_-0.400_sB_0_0_-0.800/Lev5         1.138090989093415e-06         0.17278306333785745         2.0508491998088646e-06
../SimulationAnnex/Catalog/ChuAlignedRuns/BBH_SKS_d18.7_q1_sA_0_0_-0.600_sB_0_0_-0.600/Lev5         9.145872942458992e-08         1.3988859594991398e-05         5.686929027117171e-07
../SimulationAnnex/Catalog/ChuAlignedRuns/BBH_SKS_d18_q1_sA_0_0_-0.625_sB_0_0_-0.250/Lev5         4.6534980288795194e-07         0.08626918995274714         5.060427699500562e-07
../SimulationAnnex/Catalog/ChuAlignedRuns/BBH_SKS_d18_q1_sA_0_0_-0.900_sB_0_0_0/Lev5         2.304773065273396e-06         0.3098837887761858         5.357946195705209e-06
../SimulationAnnex/Catalog/ChuAlignedRuns/BBH_SKS_d19.1_q2_sA_0_0_-0.850_sB_0_0_-0.850/Lev5         7.135100260188644e-06         0.038342407195276734         6.2572213900414604e-06
../SimulationAnnex/Catalog/ChuAlignedRuns/BBH_SKS_d19.2_q1_sA_0_0_-0.900_sB_0_0_-0.500/Lev5         2.9086261196484892e-06         0.27062916785419255         1.6331008150597776e-06
../SimulationAnnex/Catalog/ChuAlignedRuns/BBH_SKS_d19.8_q1_sA_0_0_-0.800_sB_0_0_-0.800/Lev5         2.2174384477800606e-08         6.929160762045222e-06         2.232230165174416e-07
